{
    "content": [
        {
            "id": "d55df48b-334d-462b-aa08-f8ff87b53279",
            "reference": "GHABK381100001415",
            "operation": {
                "code": "3",
                "name": "Transit Through",
                "description": null,
                "status": "ACTIVE"
            },
            "principal": "90184561",
            "principalName": "Atlas World Logistics",
            "status": "PAID",
            "officeDeparture": {
                "code": "GHABK",
                "name": "Ghana Customs Abeka",
                "description": null,
                "status": null,
                "communicationReference": "123999999",
                "officeTypes": [
                    {
                        "code": "1",
                        "name": "Border Office",
                        "description": null,
                        "status": "ACTIVE"
                    },
                    {
                        "code": "2",
                        "name": "Clearance Office",
                        "description": null,
                        "status": "ACTIVE"
                    }
                ]
            },
            "officeDestination": {
                "code": "GHABO",
                "name": "Ghana Customs Abor",
                "description": null,
                "status": null,
                "communicationReference": "123456789",
                "officeTypes": [
                    {
                        "code": "1",
                        "name": "Border Office",
                        "description": null,
                        "status": "ACTIVE"
                    },
                    {
                        "code": "2",
                        "name": "Clearance Office",
                        "description": null,
                        "status": "ACTIVE"
                    }
                ]
            },
            "createdDate": "2024-06-13T14:32:56.364114Z",
            "submittedDate": "2024-06-14T04:06:34.768168Z",
            "departureDateTime": "2024-06-12T17:59:00Z",
            "estimatedArrivalDate": "2024-06-14T04:20:15.547140Z",
            "facilityCode": null,
            "facilityBillReference": null,
            "requests": [],
            "pinned": false,
            "isInvoiceGenerated": true
        },
        {
            "id": "6b6726f3-ed95-4fb3-a0b7-4a3146487203",
            "reference": "GHABK381100001417",
            "operation": {
                "code": "3",
                "name": "Transit Through",
                "description": null,
                "status": "ACTIVE"
            },
            "principal": "90184561",
            "principalName": "Atlas World Logistics",
            "status": "DEPARTED",
            "officeDeparture": {
                "code": "GHABK",
                "name": "Ghana Customs Abeka",
                "description": null,
                "status": null,
                "communicationReference": "123999999",
                "officeTypes": [
                    {
                        "code": "1",
                        "name": "Border Office",
                        "description": null,
                        "status": "ACTIVE"
                    },
                    {
                        "code": "2",
                        "name": "Clearance Office",
                        "description": null,
                        "status": "ACTIVE"
                    }
                ]
            },
            "officeDestination": {
                "code": "GHABO",
                "name": "Ghana Customs Abor",
                "description": null,
                "status": null,
                "communicationReference": "123456789",
                "officeTypes": [
                    {
                        "code": "1",
                        "name": "Border Office",
                        "description": null,
                        "status": "ACTIVE"
                    },
                    {
                        "code": "2",
                        "name": "Clearance Office",
                        "description": null,
                        "status": "ACTIVE"
                    }
                ]
            },
            "createdDate": "2024-06-13T15:06:34.087820Z",
            "submittedDate": "2024-06-13T15:06:34.482523Z",
            "departureDateTime": "2024-06-12T17:59:00Z",
            "estimatedArrivalDate": "2024-06-13T15:17:43.009227Z",
            "facilityCode": null,
            "facilityBillReference": null,
            "requests": [],
            "pinned": false,
            "isInvoiceGenerated": true
        },
        {
            "id": "cf9a2c5c-d8d5-46e0-80ca-71ac4890be9b",
            "reference": "GHABK381100001416",
            "operation": {
                "code": "3",
                "name": "Transit Through",
                "description": null,
                "status": "ACTIVE"
            },
            "principal": "90184561",
            "principalName": "Atlas World Logistics",
            "status": "DEPARTED",
            "officeDeparture": {
                "code": "GHABK",
                "name": "Ghana Customs Abeka",
                "description": null,
                "status": null,
                "communicationReference": "123999999",
                "officeTypes": [
                    {
                        "code": "1",
                        "name": "Border Office",
                        "description": null,
                        "status": "ACTIVE"
                    },
                    {
                        "code": "2",
                        "name": "Clearance Office",
                        "description": null,
                        "status": "ACTIVE"
                    }
                ]
            },
            "officeDestination": {
                "code": "GHABO",
                "name": "Ghana Customs Abor",
                "description": null,
                "status": null,
                "communicationReference": "123456789",
                "officeTypes": [
                    {
                        "code": "1",
                        "name": "Border Office",
                        "description": null,
                        "status": "ACTIVE"
                    },
                    {
                        "code": "2",
                        "name": "Clearance Office",
                        "description": null,
                        "status": "ACTIVE"
                    }
                ]
            },
            "createdDate": "2024-06-13T15:02:40.839867Z",
            "submittedDate": "2024-06-13T15:02:41.069715Z",
            "departureDateTime": "2024-06-12T17:00:00Z",
            "estimatedArrivalDate": "2024-06-15T15:04:39.045588Z",
            "facilityCode": null,
            "facilityBillReference": null,
            "requests": [],
            "pinned": false,
            "isInvoiceGenerated": false
        },
        {
            "id": "85047836-abad-4539-aacc-d3ee8487b1c8",
            "reference": "GHABK181100001414",
            "operation": {
                "code": "1",
                "name": "Outward Transit",
                "description": null,
                "status": "ACTIVE"
            },
            "principal": "90184561",
            "principalName": "Atlas World Logistics",
            "status": "ARRIVED",
            "officeDeparture": {
                "code": "GHABK",
                "name": "Ghana Customs Abeka",
                "description": null,
                "status": null,
                "communicationReference": "123999999",
                "officeTypes": [
                    {
                        "code": "1",
                        "name": "Border Office",
                        "description": null,
                        "status": "ACTIVE"
                    },
                    {
                        "code": "2",
                        "name": "Clearance Office",
                        "description": null,
                        "status": "ACTIVE"
                    }
                ]
            },
            "officeDestination": {
                "code": "GHABO",
                "name": "Ghana Customs Abor",
                "description": null,
                "status": null,
                "communicationReference": "123456789",
                "officeTypes": [
                    {
                        "code": "1",
                        "name": "Border Office",
                        "description": null,
                        "status": "ACTIVE"
                    },
                    {
                        "code": "2",
                        "name": "Clearance Office",
                        "description": null,
                        "status": "ACTIVE"
                    }
                ]
            },
            "createdDate": "2024-06-11T08:15:43.044638Z",
            "submittedDate": "2024-06-11T08:15:43.604Z",
            "departureDateTime": "2024-06-10T17:30:00Z",
            "estimatedArrivalDate": "2024-06-11T09:02:23.954368Z",
            "facilityCode": null,
            "facilityBillReference": null,
            "requests": [],
            "pinned": false,
            "isInvoiceGenerated": false
        },
        {
            "id": "7dfea637-02b4-4f9b-bcab-e26036c2a96a",
            "reference": "GHABK181100001413",
            "operation": {
                "code": "1",
                "name": "Outward Transit",
                "description": null,
                "status": "ACTIVE"
            },
            "principal": "90184561",
            "principalName": "Atlas World Logistics",
            "status": "ARRIVED",
            "officeDeparture": {
                "code": "GHABK",
                "name": "Ghana Customs Abeka",
                "description": null,
                "status": null,
                "communicationReference": "123999999",
                "officeTypes": [
                    {
                        "code": "1",
                        "name": "Border Office",
                        "description": null,
                        "status": "ACTIVE"
                    },
                    {
                        "code": "2",
                        "name": "Clearance Office",
                        "description": null,
                        "status": "ACTIVE"
                    }
                ]
            },
            "officeDestination": {
                "code": "GHABO",
                "name": "Ghana Customs Abor",
                "description": null,
                "status": null,
                "communicationReference": "123456789",
                "officeTypes": [
                    {
                        "code": "1",
                        "name": "Border Office",
                        "description": null,
                        "status": "ACTIVE"
                    },
                    {
                        "code": "2",
                        "name": "Clearance Office",
                        "description": null,
                        "status": "ACTIVE"
                    }
                ]
            },
            "createdDate": "2024-06-11T03:45:55.797024Z",
            "submittedDate": "2024-06-11T03:45:56.268068Z",
            "departureDateTime": "2024-06-10T17:00:00Z",
            "estimatedArrivalDate": "2024-06-11T03:58:45.707718Z",
            "facilityCode": null,
            "facilityBillReference": null,
            "requests": [],
            "pinned": false,
            "isInvoiceGenerated": true
        },
        {
            "id": "23f96a45-14dc-40de-83f8-6b0648b6ed76",
            "reference": "GHABK381100001412",
            "operation": {
                "code": "3",
                "name": "Transit Through",
                "description": null,
                "status": "ACTIVE"
            },
            "principal": "90184561",
            "principalName": "Atlas World Logistics",
            "status": "ARRIVED",
            "officeDeparture": {
                "code": "GHABK",
                "name": "Ghana Customs Abeka",
                "description": null,
                "status": null,
                "communicationReference": "123999999",
                "officeTypes": [
                    {
                        "code": "1",
                        "name": "Border Office",
                        "description": null,
                        "status": "ACTIVE"
                    },
                    {
                        "code": "2",
                        "name": "Clearance Office",
                        "description": null,
                        "status": "ACTIVE"
                    }
                ]
            },
            "officeDestination": {
                "code": "GHABO",
                "name": "Ghana Customs Abor",
                "description": null,
                "status": null,
                "communicationReference": "123456789",
                "officeTypes": [
                    {
                        "code": "1",
                        "name": "Border Office",
                        "description": null,
                        "status": "ACTIVE"
                    },
                    {
                        "code": "2",
                        "name": "Clearance Office",
                        "description": null,
                        "status": "ACTIVE"
                    }
                ]
            },
            "createdDate": "2024-06-11T03:26:28.546212Z",
            "submittedDate": "2024-06-11T03:26:29.317160Z",
            "departureDateTime": "2024-06-10T17:30:00Z",
            "estimatedArrivalDate": "2024-06-11T09:17:26.719824Z",
            "facilityCode": null,
            "facilityBillReference": null,
            "requests": [],
            "pinned": false,
            "isInvoiceGenerated": true
        },
        {
            "id": "30d24d7f-3da5-42c9-b3d0-4d0b22ee89aa",
            "reference": "GHABK281100001411",
            "operation": {
                "code": "2",
                "name": "Inward Transit",
                "description": null,
                "status": "ACTIVE"
            },
            "principal": "90184561",
            "principalName": "Atlas World Logistics",
            "status": "EXITED",
            "officeDeparture": {
                "code": "GHABK",
                "name": "Ghana Customs Abeka",
                "description": null,
                "status": null,
                "communicationReference": "123999999",
                "officeTypes": [
                    {
                        "code": "1",
                        "name": "Border Office",
                        "description": null,
                        "status": "ACTIVE"
                    },
                    {
                        "code": "2",
                        "name": "Clearance Office",
                        "description": null,
                        "status": "ACTIVE"
                    }
                ]
            },
            "officeDestination": {
                "code": "GHABO",
                "name": "Ghana Customs Abor",
                "description": null,
                "status": null,
                "communicationReference": "123456789",
                "officeTypes": [
                    {
                        "code": "1",
                        "name": "Border Office",
                        "description": null,
                        "status": "ACTIVE"
                    },
                    {
                        "code": "2",
                        "name": "Clearance Office",
                        "description": null,
                        "status": "ACTIVE"
                    }
                ]
            },
            "createdDate": "2024-06-07T09:57:46.893943Z",
            "submittedDate": "2024-06-07T09:57:47.804116Z",
            "departureDateTime": "2024-06-06T17:00:00Z",
            "estimatedArrivalDate": "2024-06-09T10:36:27.728339Z",
            "facilityCode": null,
            "facilityBillReference": null,
            "requests": [],
            "pinned": false,
            "isInvoiceGenerated": true
        },
        {
            "id": "a356c6a8-2f84-459c-9eed-e92f82dfb0ee",
            "reference": "GHABK381100001410",
            "operation": {
                "code": "3",
                "name": "Transit Through",
                "description": null,
                "status": "ACTIVE"
            },
            "principal": "90184561",
            "principalName": "Atlas World Logistics",
            "status": "LATE",
            "officeDeparture": {
                "code": "GHABK",
                "name": "Ghana Customs Abeka",
                "description": null,
                "status": null,
                "communicationReference": "123999999",
                "officeTypes": [
                    {
                        "code": "1",
                        "name": "Border Office",
                        "description": null,
                        "status": "ACTIVE"
                    },
                    {
                        "code": "2",
                        "name": "Clearance Office",
                        "description": null,
                        "status": "ACTIVE"
                    }
                ]
            },
            "officeDestination": {
                "code": "GHABO",
                "name": "Ghana Customs Abor",
                "description": null,
                "status": null,
                "communicationReference": "123456789",
                "officeTypes": [
                    {
                        "code": "1",
                        "name": "Border Office",
                        "description": null,
                        "status": "ACTIVE"
                    },
                    {
                        "code": "2",
                        "name": "Clearance Office",
                        "description": null,
                        "status": "ACTIVE"
                    }
                ]
            },
            "createdDate": "2024-06-06T13:24:25.025706Z",
            "submittedDate": "2024-06-06T13:24:25.320471Z",
            "departureDateTime": "2024-06-06T06:11:00Z",
            "estimatedArrivalDate": "2024-06-06T14:55:09.153806Z",
            "facilityCode": null,
            "facilityBillReference": null,
            "requests": [],
            "pinned": false,
            "isInvoiceGenerated": true
        },
        {
            "id": "949216aa-b478-4ffc-b4c4-e5d6450fceed",
            "reference": "GHABK281100001409",
            "operation": {
                "code": "2",
                "name": "Inward Transit",
                "description": null,
                "status": "ACTIVE"
            },
            "principal": "90184561",
            "principalName": "Atlas World Logistics",
            "status": "EXITED",
            "officeDeparture": {
                "code": "GHABK",
                "name": "Ghana Customs Abeka",
                "description": null,
                "status": null,
                "communicationReference": "123999999",
                "officeTypes": [
                    {
                        "code": "1",
                        "name": "Border Office",
                        "description": null,
                        "status": "ACTIVE"
                    },
                    {
                        "code": "2",
                        "name": "Clearance Office",
                        "description": null,
                        "status": "ACTIVE"
                    }
                ]
            },
            "officeDestination": {
                "code": "GHABO",
                "name": "Ghana Customs Abor",
                "description": null,
                "status": null,
                "communicationReference": "123456789",
                "officeTypes": [
                    {
                        "code": "1",
                        "name": "Border Office",
                        "description": null,
                        "status": "ACTIVE"
                    },
                    {
                        "code": "2",
                        "name": "Clearance Office",
                        "description": null,
                        "status": "ACTIVE"
                    }
                ]
            },
            "createdDate": "2024-06-06T12:10:19.186913Z",
            "submittedDate": "2024-06-06T12:10:19.476427Z",
            "departureDateTime": "2024-06-06T04:00:00Z",
            "estimatedArrivalDate": "2024-06-13T03:09:41.708389Z",
            "facilityCode": null,
            "facilityBillReference": null,
            "requests": [],
            "pinned": false,
            "isInvoiceGenerated": true
        },
        {
            "id": "a164e0ab-e7cc-4522-9d1a-4f6e9c7fde45",
            "reference": "GHABK281100001408",
            "operation": {
                "code": "2",
                "name": "Inward Transit",
                "description": null,
                "status": "ACTIVE"
            },
            "principal": "90184561",
            "principalName": "Atlas World Logistics",
            "status": "LATE",
            "officeDeparture": {
                "code": "GHABK",
                "name": "Ghana Customs Abeka",
                "description": null,
                "status": null,
                "communicationReference": "123999999",
                "officeTypes": [
                    {
                        "code": "1",
                        "name": "Border Office",
                        "description": null,
                        "status": "ACTIVE"
                    },
                    {
                        "code": "2",
                        "name": "Clearance Office",
                        "description": null,
                        "status": "ACTIVE"
                    }
                ]
            },
            "officeDestination": {
                "code": "GHABO",
                "name": "Ghana Customs Abor",
                "description": null,
                "status": null,
                "communicationReference": "123456789",
                "officeTypes": [
                    {
                        "code": "1",
                        "name": "Border Office",
                        "description": null,
                        "status": "ACTIVE"
                    },
                    {
                        "code": "2",
                        "name": "Clearance Office",
                        "description": null,
                        "status": "ACTIVE"
                    }
                ]
            },
            "createdDate": "2024-06-06T11:30:32.001559Z",
            "submittedDate": "2024-06-06T11:30:32.621711Z",
            "departureDateTime": "2024-06-06T04:00:00Z",
            "estimatedArrivalDate": "2024-06-09T03:55:09.178531Z",
            "facilityCode": null,
            "facilityBillReference": null,
            "requests": [],
            "pinned": false,
            "isInvoiceGenerated": true
        }
    ],
    "pageable": {
        "sort": {
            "empty": true,
            "sorted": false,
            "unsorted": true
        },
        "offset": 0,
        "pageNumber": 0,
        "pageSize": 10,
        "paged": true,
        "unpaged": false
    },
    "totalPages": 39,
    "totalElements": 382,
    "last": false,
    "size": 10,
    "number": 0,
    "sort": {
        "empty": true,
        "sorted": false,
        "unsorted": true
    },
    "numberOfElements": 10,
    "first": true,
    "empty": false
}